{
  "source": "src",
  "destination": "public",
  "plugins": {
    "metalsmith-collections": {
      "posts": {
        "pattern": "blog/!(index).md"
      }
    },
    "metalsmith-markdown": {
      "gfm": true
    },
    "metalsmith-layouts": {
      "engine": "liquid",
      "directory": "layouts",
      "includeDir": "layouts/includes"
    },
    "metalsmith-in-place": {
      "engine": "liquid",
      "pattern": "**/*.html",
      "includeDir": "layouts/includes"
    },
    "metalsmith-permalinks": {
      "pattern": "blog/:title"
    },
    "metalsmith-sass": {
      "outputDir": "css"
    }
  }
}
